%YAML 1.1
%TAG !u! tag:unity3d.com,2011:
--- !u!114 &11400000
MonoBehaviour:
  m_ObjectHideFlags: 0
  m_CorrespondingSourceObject: {fileID: 0}
  m_PrefabInstance: {fileID: 0}
  m_PrefabAsset: {fileID: 0}
  m_GameObject: {fileID: 0}
  m_Enabled: 1
  m_EditorHideFlags: 0
  m_Script: {fileID: 11500000, guid: c0d78e0cac315634583fea2cefdc8b19, type: 3}
  m_Name: FireTurel
  m_EditorClassIdentifier: 
  name: "\u041E\u0433\u043D\u0435\u043D\u043D\u0430\u044F \u0442\u0443\u0440\u0435\u043B\u044C"
  attackDistance: 40
  bulletPrefab: {fileID: 7417498808039222543, guid: dfd1afe7f4aeed84b8327a3dd4917436,
    type: 3}
  rateOffFire: 30
  rotationSpeed: 10
  shotSound: {fileID: 8300000, guid: 6655d351449c5cd4bb4c2fdf19678755, type: 3}
  resourcesType: 0
  resourcesForBuild: 50
  timeForBuild: 2
  bulletsStartCount: 70
  timeForReload: 12
  resourceForReloadType: 0
  resourcesForReloadCount: 100
  bulletsAddedAfterReload: 50
  resourceForUpgradeType: 0
  resourcesForUprgadeCount: 50
  timeForUpgrade: 9
  damageIncrement: 6
  rateOffFireIncrement: 1
  upgradeCostIncrement: 10
  timeForUtil: 2
  addedResourcesType: 0
  addedResourceCount: 50
